vhdl work "C:\Users\lvsit\OneDrive\Ambiente de Trabalho\vendingmachine_hw\FullAdder.vhd"
vhdl work "C:\Users\lvsit\OneDrive\Ambiente de Trabalho\vendingmachine_hw\MUX2_1.vhd"
vhdl work "C:\Users\lvsit\OneDrive\Ambiente de Trabalho\vendingmachine_hw\Adder3Bit.vhd"
vhdl work "C:\Users\lvsit\OneDrive\Ambiente de Trabalho\vendingmachine_hw\SerialCounterLogic.vhd"
vhdl work "C:\Users\lvsit\OneDrive\Ambiente de Trabalho\vendingmachine_hw\Register_D_En.vhd"
vhdl work "C:\Users\lvsit\OneDrive\Ambiente de Trabalho\vendingmachine_hw\Register_D.vhd"
vhdl work "C:\Users\lvsit\OneDrive\Ambiente de Trabalho\vendingmachine_hw\DMUX.vhd"
vhdl work "C:\Users\lvsit\OneDrive\Ambiente de Trabalho\vendingmachine_hw\SerialCounter.vhd"
vhdl work "C:\Users\lvsit\OneDrive\Ambiente de Trabalho\vendingmachine_hw\SerialControl.vhd"
vhdl work "C:\Users\lvsit\OneDrive\Ambiente de Trabalho\vendingmachine_hw\ParityCheck.vhd"
vhdl work "C:\Users\lvsit\OneDrive\Ambiente de Trabalho\vendingmachine_hw\DataStorage.vhd"
vhdl work "C:\Users\lvsit\OneDrive\Ambiente de Trabalho\vendingmachine_hw\Compare7.vhd"
vhdl work "C:\Users\lvsit\OneDrive\Ambiente de Trabalho\vendingmachine_hw\Compare6.vhd"
vhdl work "C:\Users\lvsit\OneDrive\Ambiente de Trabalho\vendingmachine_hw\Compare5.vhd"
vhdl work "C:\Users\lvsit\OneDrive\Ambiente de Trabalho\vendingmachine_hw\SerialReceiver.vhd"
vhdl work "C:\Users\lvsit\OneDrive\Ambiente de Trabalho\vendingmachine_hw\IOS.vhd"
