vhdl work "C:\Users\Vladimir\OneDrive\Documentos\vending_machine\FullAdder.vhd"
vhdl work "C:\Users\Vladimir\OneDrive\Documentos\vending_machine\MUX2_1.vhd"
vhdl work "C:\Users\Vladimir\OneDrive\Documentos\vending_machine\Adder4bit.vhd"
vhdl work "C:\Users\Vladimir\OneDrive\Documentos\vending_machine\Register_D.vhd"
vhdl work "C:\Users\Vladimir\OneDrive\Documentos\vending_machine\CounterLogic4bit.vhd"
vhdl work "C:\Users\Vladimir\OneDrive\Documentos\vending_machine\Mux4_1.vhd"
vhdl work "C:\Users\Vladimir\OneDrive\Documentos\vending_machine\Decoder2_3.vhd"
vhdl work "C:\Users\Vladimir\OneDrive\Documentos\vending_machine\Counter.vhd"
vhdl work "C:\Users\Vladimir\OneDrive\Documentos\vending_machine\KeyScan.vhd"
vhdl work "C:\Users\Vladimir\OneDrive\Documentos\vending_machine\KeyControl.vhd"
vhdl work "C:\Users\Vladimir\OneDrive\Documentos\vending_machine\KeyBufferControl.vhd"
vhdl work "C:\Users\Vladimir\OneDrive\Documentos\vending_machine\KeyDecode.vhd"
vhdl work "C:\Users\Vladimir\OneDrive\Documentos\vending_machine\KeyBuffer.vhd"
vhdl work "C:\Users\Vladimir\OneDrive\Documentos\vending_machine\Keyboardreader.vhd"
