vhdl isim_temp "FullAdder.vhd"
vhdl isim_temp "MUX2_1.vhd"
vhdl isim_temp "Adder4bit.vhd"
vhdl isim_temp "Register_D.vhd"
vhdl isim_temp "CounterLogic4bit.vhd"
vhdl isim_temp "Mux4_1.vhd"
vhdl isim_temp "Decoder2_3.vhd"
vhdl isim_temp "Counter.vhd"
vhdl isim_temp "KeyScan.vhd"
vhdl isim_temp "KeyControl.vhd"
vhdl isim_temp "KeyDecode.vhd"
vhdl isim_temp "KeyboardReaderWrapper.vhd"
