MODEL
MODEL_VERSION "v1998.8";
DESIGN "VendingMachineWraper";

/* port names and type */
INPUT S:PIN22 = CLK;
INPUT S:PIN91 = OUTPORT_1;
INPUT S:PIN99 = RST;
INPUT S:PIN92 = OUTPORT_2;
INPUT S:PIN97 = OUTPORT_7;
INPUT S:PIN20 = J2_7;
INPUT S:PIN24 = J2_9;
INPUT S:PIN33 = J2_6;
INPUT S:PIN34 = J2_8;
INPUT S:PIN77 = J4_13;
OUTPUT S:PIN52 = INPORT_0;
OUTPUT S:PIN53 = INPORT_1;
OUTPUT S:PIN54 = INPORT_2;
OUTPUT S:PIN55 = INPORT_3;
OUTPUT S:PIN9 = J1_11;
OUTPUT S:PIN8 = J1_9;
OUTPUT S:PIN59 = INPORT_6;
OUTPUT S:PIN56 = INPORT_4;
OUTPUT S:PIN15 = J1_10;
OUTPUT S:PIN60 = INPORT_7;
OUTPUT S:PIN14 = J1_8;
OUTPUT S:PIN7 = J1_7;
OUTPUT S:PIN13 = J1_6;
OUTPUT S:PIN6 = J1_5;
OUTPUT S:PIN35 = J2_10;
OUTPUT S:PIN25 = J2_11;
OUTPUT S:PIN36 = J2_12;
OUTPUT S:PIN49 = J3_15;
OUTPUT S:PIN76 = J4_11;

/* timing arc definitions */
J4_13_INPORT_7_delay: DELAY J4_13 INPORT_7;
OUTPORT_2_J1_9_delay: DELAY OUTPORT_2 J1_9;
OUTPORT_2_J1_10_delay: DELAY OUTPORT_2 J1_10;
OUTPORT_2_J1_8_delay: DELAY OUTPORT_2 J1_8;
OUTPORT_2_J1_7_delay: DELAY OUTPORT_2 J1_7;
OUTPORT_2_J1_6_delay: DELAY OUTPORT_2 J1_6;
OUTPORT_2_J1_5_delay: DELAY OUTPORT_2 J1_5;
CLK_INPORT_0_delay: DELAY CLK INPORT_0;
CLK_INPORT_1_delay: DELAY CLK INPORT_1;
CLK_INPORT_2_delay: DELAY CLK INPORT_2;
CLK_INPORT_3_delay: DELAY CLK INPORT_3;
CLK_J1_11_delay: DELAY CLK J1_11;
CLK_INPORT_6_delay: DELAY CLK INPORT_6;
CLK_INPORT_4_delay: DELAY CLK INPORT_4;
CLK_J1_10_delay: DELAY CLK J1_10;
CLK_J2_10_delay: DELAY CLK J2_10;
CLK_J2_11_delay: DELAY CLK J2_11;
CLK_J2_12_delay: DELAY CLK J2_12;

/* timing check arc definitions */
OUTPORT_1_OUTPORT_2_setup: SETUP(POSEDGE) OUTPORT_1 OUTPORT_2;
OUTPORT_1_OUTPORT_2_hold: HOLD(POSEDGE) OUTPORT_1 OUTPORT_2;
J2_6_CLK_setup: SETUP(POSEDGE) J2_6 CLK;
J2_7_CLK_setup: SETUP(POSEDGE) J2_7 CLK;
J2_8_CLK_setup: SETUP(POSEDGE) J2_8 CLK;
J2_9_CLK_setup: SETUP(POSEDGE) J2_9 CLK;
OUTPORT_1_CLK_setup: SETUP(POSEDGE) OUTPORT_1 CLK;
OUTPORT_2_CLK_setup: SETUP(POSEDGE) OUTPORT_2 CLK;
OUTPORT_7_CLK_setup: SETUP(POSEDGE) OUTPORT_7 CLK;
J2_6_CLK_hold: HOLD(POSEDGE) J2_6 CLK;
J2_7_CLK_hold: HOLD(POSEDGE) J2_7 CLK;
J2_8_CLK_hold: HOLD(POSEDGE) J2_8 CLK;
J2_9_CLK_hold: HOLD(POSEDGE) J2_9 CLK;
OUTPORT_1_CLK_hold: HOLD(POSEDGE) OUTPORT_1 CLK;
OUTPORT_2_CLK_hold: HOLD(POSEDGE) OUTPORT_2 CLK;
OUTPORT_7_CLK_hold: HOLD(POSEDGE) OUTPORT_7 CLK;

ENDMODEL
