MODELDATA
MODELDATA_VERSION "v1998.8"
DESIGN "VendingMachineWraper";

/* port drive, load, max capacitance and max transition in data file */
PORTDATA
CLK: MAXTRANS(0.0);
OUTPORT_1: MAXTRANS(0.0);
RST: MAXTRANS(0.0);
OUTPORT_2: MAXTRANS(0.0);
OUTPORT_7: MAXTRANS(0.0);
J2_7: MAXTRANS(0.0);
J2_9: MAXTRANS(0.0);
J2_6: MAXTRANS(0.0);
J2_8: MAXTRANS(0.0);
J4_13: MAXTRANS(0.0);
INPORT_0: MAXTRANS(0.0);
INPORT_1: MAXTRANS(0.0);
INPORT_2: MAXTRANS(0.0);
INPORT_3: MAXTRANS(0.0);
J1_11: MAXTRANS(0.0);
J1_9: MAXTRANS(0.0);
INPORT_6: MAXTRANS(0.0);
INPORT_4: MAXTRANS(0.0);
J1_10: MAXTRANS(0.0);
INPORT_7: MAXTRANS(0.0);
J1_8: MAXTRANS(0.0);
J1_7: MAXTRANS(0.0);
J1_6: MAXTRANS(0.0);
J1_5: MAXTRANS(0.0);
J2_10: MAXTRANS(0.0);
J2_11: MAXTRANS(0.0);
J2_12: MAXTRANS(0.0);
J3_15: MAXTRANS(0.0);
J4_11: MAXTRANS(0.0);
ENDPORTDATA

/* timing arc data */
TIMINGDATA

ARCDATA
J4_13_INPORT_7_delay:
CELL_RISE(scalar) {
  VALUES("10");
}
CELL_FALL(scalar) {
  VALUES("10");
}
ENDARCDATA

ARCDATA
OUTPORT_2_J1_9_delay:
CELL_RISE(scalar) {
  VALUES("10.2");
}
CELL_FALL(scalar) {
  VALUES("10.2");
}
ENDARCDATA

ARCDATA
OUTPORT_2_J1_10_delay:
CELL_RISE(scalar) {
  VALUES("17.9");
}
CELL_FALL(scalar) {
  VALUES("17.9");
}
ENDARCDATA

ARCDATA
OUTPORT_2_J1_8_delay:
CELL_RISE(scalar) {
  VALUES("10.2");
}
CELL_FALL(scalar) {
  VALUES("10.2");
}
ENDARCDATA

ARCDATA
OUTPORT_2_J1_7_delay:
CELL_RISE(scalar) {
  VALUES("10.2");
}
CELL_FALL(scalar) {
  VALUES("10.2");
}
ENDARCDATA

ARCDATA
OUTPORT_2_J1_6_delay:
CELL_RISE(scalar) {
  VALUES("10.2");
}
CELL_FALL(scalar) {
  VALUES("10.2");
}
ENDARCDATA

ARCDATA
OUTPORT_2_J1_5_delay:
CELL_RISE(scalar) {
  VALUES("10.2");
}
CELL_FALL(scalar) {
  VALUES("10.2");
}
ENDARCDATA

ARCDATA
CLK_INPORT_0_delay:
CELL_RISE(scalar) {
  VALUES("13.7");
}
CELL_FALL(scalar) {
  VALUES("13.7");
}
ENDARCDATA

ARCDATA
CLK_INPORT_1_delay:
CELL_RISE(scalar) {
  VALUES("13.7");
}
CELL_FALL(scalar) {
  VALUES("13.7");
}
ENDARCDATA

ARCDATA
CLK_INPORT_2_delay:
CELL_RISE(scalar) {
  VALUES("13.7");
}
CELL_FALL(scalar) {
  VALUES("13.7");
}
ENDARCDATA

ARCDATA
CLK_INPORT_3_delay:
CELL_RISE(scalar) {
  VALUES("13.7");
}
CELL_FALL(scalar) {
  VALUES("13.7");
}
ENDARCDATA

ARCDATA
CLK_J1_11_delay:
CELL_RISE(scalar) {
  VALUES("13.5");
}
CELL_FALL(scalar) {
  VALUES("13.5");
}
ENDARCDATA

ARCDATA
CLK_INPORT_6_delay:
CELL_RISE(scalar) {
  VALUES("13.5");
}
CELL_FALL(scalar) {
  VALUES("13.5");
}
ENDARCDATA

ARCDATA
CLK_INPORT_4_delay:
CELL_RISE(scalar) {
  VALUES("13.5");
}
CELL_FALL(scalar) {
  VALUES("13.5");
}
ENDARCDATA

ARCDATA
CLK_J1_10_delay:
CELL_RISE(scalar) {
  VALUES("13.5");
}
CELL_FALL(scalar) {
  VALUES("13.5");
}
ENDARCDATA

ARCDATA
CLK_J2_10_delay:
CELL_RISE(scalar) {
  VALUES("5.8");
}
CELL_FALL(scalar) {
  VALUES("5.8");
}
ENDARCDATA

ARCDATA
CLK_J2_11_delay:
CELL_RISE(scalar) {
  VALUES("5.8");
}
CELL_FALL(scalar) {
  VALUES("5.8");
}
ENDARCDATA

ARCDATA
CLK_J2_12_delay:
CELL_RISE(scalar) {
  VALUES("13.5");
}
CELL_FALL(scalar) {
  VALUES("13.5");
}
ENDARCDATA

ARCDATA
OUTPORT_1_OUTPORT_2_setup:
CONSTRAINT(scalar) {
  VALUES("5.1");
}
ENDARCDATA

ARCDATA
OUTPORT_1_OUTPORT_2_hold:
CONSTRAINT(scalar) {
  VALUES("1.4");
}
ENDARCDATA

ARCDATA
J2_6_CLK_setup:
CONSTRAINT(scalar) {
  VALUES("9.5");
}
ENDARCDATA

ARCDATA
J2_7_CLK_setup:
CONSTRAINT(scalar) {
  VALUES("9.5");
}
ENDARCDATA

ARCDATA
J2_8_CLK_setup:
CONSTRAINT(scalar) {
  VALUES("9.5");
}
ENDARCDATA

ARCDATA
J2_9_CLK_setup:
CONSTRAINT(scalar) {
  VALUES("9.5");
}
ENDARCDATA

ARCDATA
OUTPORT_1_CLK_setup:
CONSTRAINT(scalar) {
  VALUES("10.5");
}
ENDARCDATA

ARCDATA
OUTPORT_2_CLK_setup:
CONSTRAINT(scalar) {
  VALUES("9.5");
}
ENDARCDATA

ARCDATA
OUTPORT_7_CLK_setup:
CONSTRAINT(scalar) {
  VALUES("9.5");
}
ENDARCDATA

ARCDATA
J2_6_CLK_hold:
CONSTRAINT(scalar) {
  VALUES("-3");
}
ENDARCDATA

ARCDATA
J2_7_CLK_hold:
CONSTRAINT(scalar) {
  VALUES("-3");
}
ENDARCDATA

ARCDATA
J2_8_CLK_hold:
CONSTRAINT(scalar) {
  VALUES("-3");
}
ENDARCDATA

ARCDATA
J2_9_CLK_hold:
CONSTRAINT(scalar) {
  VALUES("-3");
}
ENDARCDATA

ARCDATA
OUTPORT_1_CLK_hold:
CONSTRAINT(scalar) {
  VALUES("-4");
}
ENDARCDATA

ARCDATA
OUTPORT_2_CLK_hold:
CONSTRAINT(scalar) {
  VALUES("-3");
}
ENDARCDATA

ARCDATA
OUTPORT_7_CLK_hold:
CONSTRAINT(scalar) {
  VALUES("-3");
}
ENDARCDATA

ENDTIMINGDATA
ENDMODELDATA
